RELEASE NOTES 0.13.3 (2023-09-13)

@@@@@@@@@@@@@@@@@@@@@@@@@@@@@@@@@@@@@@@@@@@@@@@@@@@@@@@@@@@@@@@@@@@@@@@@@@@@@@@@
1. Tools: postchain.sh removed

Obsolete script postchain.sh removed from distribution archive.
